data_analysis
…
missing_data <- appp_data |>
  summarise(across(everything(), ~ sum(is.na(.)))) |>
  pivot_longer(everything(), names_to = "variable", values_to = "missing_count") |>
  filter(missing_count > 0)

missing_data

# A tibble: 107 × 2
   variable                                                missing_count
   <chr>                                                           <int>
 1 rate_of_pregnant_women_with_oud_diagnosis                          15
 2 number_of_women_with_a_delivery_and_oud_diagnosis                  15
 3 number_of_women_with_a_delivery_and_oud_diagnosis_notes            52
 4 total_number_of_deliveries_notes                                   67
 5 fips_code                                                           1
 6 state                                                               1
 7 rural_urban_continuum_code_2023                                     1
 8 urban_influence_code_2013                                           1
 9 metro_2023                                                          1
10 civilian_labor_force_2000                                           1
# ℹ 97 more rows
…
